{
  "jugadores" : {
      "0" : {
        "nombre" : "Alisson",
        "pos" : 0,
        "precio" : 696,
        "chancegol" : 68,
        "chanceamarilla" : 2,
        "chanceasistencia" : 0
      },
      "1" : {
        "nombre" : "Marcelo",
        "pos" : 1,
        "precio" : 712,
        "chancegol" : 14,
        "chanceamarilla" : 11,
        "chanceasistencia" : 23
      },
      "2" : {
        "nombre" : "Thiago Silva",
        "pos" : 1,
        "precio" : 707,
        "chancegol" : 3,
        "chanceamarilla" : 17,
        "chanceasistencia" : 1
      },
      "3" : {
        "nombre" : "Marquinhos",
        "pos" : 1,
        "precio" : 693,
        "chancegol" : 3,
        "chanceamarilla" : 6,
        "chanceasistencia" : 9
      },
      "4" : {
        "nombre" : "Fernandinho",
        "pos" : 2,
        "precio" : 734,
        "chancegol" : 13,
        "chanceamarilla" : 31,
        "chanceasistencia" : 7
      },
      "5" : {
        "nombre" : "Paulinho",
        "pos" : 2,
        "precio" : 700,
        "chancegol" : 46,
        "chanceamarilla" : 15,
        "chanceasistencia" : 8
      },
      "6" : {
        "nombre" : "Casemiro",
        "pos" : 2,
        "precio" : 747,
        "chancegol" : 16,
        "chanceamarilla" : 35,
        "chanceasistencia" : 8
      },
      "7" : {
        "nombre" : "Philippe Coutinho",
        "pos" : 2,
        "precio" : 795,
        "chancegol" : 70,
        "chanceamarilla" : 2,
        "chanceasistencia" : 31
      },
      "8" : {
        "nombre" : "Neymar Jr.",
        "pos" : 3,
        "precio" : 899,
        "chancegol" : 98,
        "chanceamarilla" : 22,
        "chanceasistencia" : 60
      },
      "9" : {
        "nombre" : "Gabriel Jesus",
        "pos" : 3,
        "precio" : 700,
        "chancegol" : 65,
        "chanceamarilla" : 27,
        "chanceasistencia" : 10
      },
      "10" : {
        "nombre" : "Roberto Firmino",
        "pos" : 3,
        "precio" : 757,
        "chancegol" : 62,
        "chanceamarilla" : 6,
        "chanceasistencia" : 31
      }
   }
}