{
  "jugadores" : {
      "0" : {
        "nombre" : "David Ospina",
        "pos" : 0,
        "precio" : 694,
        "chancegol" : 78,
        "chanceamarilla" : 5,
        "chanceasistencia" : 0
      },
      "1" : {
        "nombre" : "Yerry Mina",
        "pos" : 1,
        "precio" : 675,
        "chancegol" : 1,
        "chanceamarilla" : 30,
        "chanceasistencia" : 13
      },
      "2" : {
        "nombre" : "Frank Fabra",
        "pos" : 1,
        "precio" : 745,
        "chancegol" : 12,
        "chanceamarilla" : 24,
        "chanceasistencia" : 12
      },
      "3" : {
        "nombre" : "Davinson Sanchez",
        "pos" : 1,
        "precio" : 690,
        "chancegol" : 3,
        "chanceamarilla" : 8,
        "chanceasistencia" : 3
      },
      "4" : {
        "nombre" : "Juan Fernando Quintero",
        "pos" : 2,
        "precio" : 706,
        "chancegol" : 20,
        "chanceamarilla" : 20,
        "chanceasistencia" : 20
      },
      "5" : {
        "nombre" : "Juan Guillermo Cuadrado",
        "pos" : 2,
        "precio" : 724,
        "chancegol" : 20,
        "chanceamarilla" : 28,
        "chanceasistencia" : 28
      },
      "6" : {
        "nombre" : "James Rodriguez",
        "pos" : 2,
        "precio" : 743,
        "chancegol" : 25,
        "chanceamarilla" : 13,
        "chanceasistencia" : 41
      },
      "7" : {
        "nombre" : "Wilmar Barrios",
        "pos" : 2,
        "precio" : 736,
        "chancegol" : 2,
        "chanceamarilla" : 25,
        "chanceasistencia" : 4
      },
      "8" : {
        "nombre" : "Radamel Falcao Garcia",
        "pos" : 3,
        "precio" : 715,
        "chancegol" : 73,
        "chanceamarilla" : 3,
        "chanceasistencia" : 13
      },
      "9" : {
        "nombre" : "Carlos Bacca",
        "pos" : 3,
        "precio" : 690,
        "chancegol" : 48,
        "chanceamarilla" : 25,
        "chanceasistencia" : 18
      },
      "10" : {
        "nombre" : "Luis Fernando Muriel",
        "pos" : 3,
        "precio" : 648,
        "chancegol" : 36,
        "chanceamarilla" : 14,
        "chanceasistencia" : 7
      }
   }
}
