{
  "jugadores": {
    "0": {
      "nombre": "Fernando Muslera",
      "pos": 0,
      "precio": 660,
      "chancegol": 67,
      "chanceamarilla": 18,
      "chanceasistencia": 0
    },
    "1": {
      "nombre": "Maximiliano Pereira",
      "pos": 1,
      "precio": 697,
      "chancegol": 5,
      "chanceamarilla": 20,
      "chanceasistencia": 20
    },
    "2": {
      "nombre": "José María Giménez",
      "pos": 1,
      "precio": 590,
      "chancegol": 5,
      "chanceamarilla": 20,
      "chanceasistencia": 5
    },
    "3": {
      "nombre": "Diego Godín",
      "pos": 1,
      "precio": 520,
      "chancegol": 2,
      "chanceamarilla": 14,
      "chanceasistencia": 1
    },
    "4": {
      "nombre": "Matias Vecino",
      "pos": 2,
      "precio": 650,
      "chancegol": 11,
      "chanceamarilla": 30,
      "chanceasistencia": 11
    },
    "5": {
      "nombre": "Carlos Sánchez",
      "pos": 2,
      "precio": 600,
      "chancegol": 26,
      "chanceamarilla": 23,
      "chanceasistencia": 20
    },
    "6": {
      "nombre": "Rodrigo Bentancur",
      "pos": 2,
      "precio": 450,
      "chancegol": 1,
      "chanceamarilla": 39,
      "chanceasistencia": 1
    },
    "7": {
      "nombre": "Diego Laxalt",
      "pos": 2,
      "precio": 650,
      "chancegol": 12,
      "chanceamarilla": 6,
      "chanceasistencia": 9
    },
    "8": {
      "nombre": "Luis Suárez ",
      "pos": 3,
      "precio": 725,
      "chancegol": 75,
      "chanceamarilla": 30,
      "chanceasistencia": 35
    },
    "9": {
      "nombre": "Edison Cavani",
      "pos": 3,
      "precio": 759,
      "chancegol": 91,
      "chanceamarilla": 6,
      "chanceasistencia": 28
    },
    "10": {
      "nombre": "Maximiliano Gómez",
      "pos": 3,
      "precio": 695,
      "chancegol": 52,
      "chanceamarilla": 35,
      "chanceasistencia": 15
    }
  }
}